{
   "http://manilastandardtoday.com/2013/08/19/napoles-names-us-all/": {
      "comments": {
         "data": [
            {
               "id": "152000468333049_175790",
               "from": {
                  "name": "Jess Gregorio",
                  "id": "1144119191"
               },
               "message": "I am for PORK abolition.  If ever the PORK does continue, we must have a fall back option to wrestle this from them and channel it to grass root community projects. It's our money so we have a choice where it can be heard and seen everyday. Not some silent passing of money into different hands and pockets. I have an idea, check out this link   http://jcgregsolutions.weebly.com/1/post/2013/08/how-to-use-pork-to-usher-long-term-rural-development-and-livelihood.html.",
               "can_remove": false,
               "created_time": "2013-08-19T03:51:25+0000",
               "like_count": 3,
               "user_likes": false
            },
            {
               "id": "152000468333049_178093",
               "from": {
                  "name": "Benjamin F. Cardinez",
                  "id": "1754521322"
               },
               "message": "Napoles is a symptom of a most dreadful disease, but she is not the disease. The virus that causes it are the enablers who make the pork barrel available to the corruption-prone legislators and executive officials.",
               "can_remove": false,
               "created_time": "2013-08-21T21:45:00+0000",
               "like_count": 2,
               "user_likes": false
            },
            {
               "id": "152000468333049_175568",
               "from": {
                  "name": "Lizbeth Villar",
                  "id": "100000411101618"
               },
               "message": "Na- foolish is our name Father.",
               "can_remove": false,
               "created_time": "2013-08-18T19:01:57+0000",
               "like_count": 2,
               "user_likes": false
            },
            {
               "id": "152000468333049_177675",
               "from": {
                  "name": "Eduardo Hernaez Jr",
                  "id": "100000077840061"
               },
               "message": "I agree. abolish PDAF and pass the FOI bill.",
               "can_remove": false,
               "created_time": "2013-08-21T09:30:03+0000",
               "like_count": 1,
               "user_likes": false
            },
            {
               "id": "152000468333049_179205",
               "from": {
                  "name": "Eric John Enriquez",
                  "id": "100000850020088"
               },
               "message": "This is the best opinion piece ever written on the pork barrel scam.",
               "can_remove": false,
               "created_time": "2013-08-23T05:13:42+0000",
               "like_count": 0,
               "user_likes": false
            },
            {
               "id": "152000468333049_175549",
               "from": {
                  "name": "Fred Derequito",
                  "id": "650674620"
               },
               "message": "Indeed. When we look at ourselves in the mirror, we see Napoles! And there's no getting away from it. Much as we deny it, corruption is ingrained in our psyche.",
               "can_remove": false,
               "created_time": "2013-08-18T17:51:53+0000",
               "like_count": 0,
               "user_likes": false
            },
            {
               "id": "152000468333049_175648",
               "from": {
                  "name": "TR MW",
                  "id": "100000515994468"
               },
               "message": "ingrained in our psyche? maybe for you if you have no sense of right or wrong.  god what a dumb statement.",
               "can_remove": false,
               "created_time": "2013-08-18T22:53:13+0000",
               "like_count": 0,
               "user_likes": false
            },
            {
               "id": "152000468333049_175747",
               "from": {
                  "name": "Ohmer Ion Raagas Miranda",
                  "id": "785904771"
               },
               "message": "Isa sa ugat na nagpapahirap sa lipunan ITIGIL na ang PDAF.",
               "can_remove": false,
               "created_time": "2013-08-19T02:29:51+0000",
               "like_count": 0,
               "user_likes": false
            },
            {
               "id": "152000468333049_175777",
               "from": {
                  "name": "Felix Jr Pagalilauan",
                  "id": "100000494981907"
               },
               "message": "There will be no Napoles if there is no Congress.",
               "can_remove": false,
               "created_time": "2013-08-19T03:24:31+0000",
               "like_count": 0,
               "user_likes": false
            },
            {
               "id": "152000468333049_176235",
               "from": {
                  "name": "Rossano Jacela",
                  "id": "100000165866483"
               },
               "message": "cute analysis",
               "can_remove": false,
               "created_time": "2013-08-19T13:52:28+0000",
               "like_count": 0,
               "user_likes": false
            }
         ],
         "paging": {
            "cursors": {
               "after": "NA==",
               "before": "MTM="
            }
         }
      }
   }
}